ModuleInfo "History: 1.06"
ModuleInfo "History: added CreatePanelEx() function which creates an extended panel that can have new cool stuff"
ModuleInfo "History: added SetPanelExGradient() function to set gradient backgrounds for extended panels"
ModuleInfo "History: 1.05"
ModuleInfo "History: added PointOverGadget() function"
ModuleInfo "History: 1.04"
ModuleInfo "History: fixed broken GadgetWindow() function"
ModuleInfo "History: 1.03"
ModuleInfo "History: Added GetAppResourcesPath() and tweaked h files"
ModuleInfo "History: 1.02"
ModuleInfo "History: Added ScrollTextAreaToTop() ScrollTextAreaToBottom() ScrollTextAreaToCursor() functions"
ModuleInfo "History: 1.01"
ModuleInfo "History: Added SetTextAreaLineSpacing() function"
ModuleInfo "History: 1.00"
ModuleInfo "History: Initial Release To Public"
import brl.blitz
import brl.map
import brl.linkedlist
import maxgui.drivers
import skn3.systemex
skn3_clientToScreen%(hwnd%,point%% Var)S="ClientToScreen@8"
skn3_loadCursorFromFile%(path$w)S="LoadCursorFromFileW@4"
skn3_destroyCursor%(hcursor%)S="DestroyCursor@4"
skn3_addFontResourceEx%(path$w,fl%,pdv%)S="AddFontResourceExW@12"
skn3_addFontMemResourceEx%(pbFont@*,cbFont%,pdv%,pcFonts@*)S="AddFontMemResourceEx@16"
skn3_sendMessagePtr%(hwnd%,MSG%,wParam@*,lParam@*)S="SendMessageW@16"
BCM_GETIDEALSIZE%=5633
BCM_GETTEXTMARGIN%=5637
FR_PRIVATE%=16
Skn3CustomPointer^brl.blitz.Object{
all:brl.map.TMap&=mem:p("_skn3_maxguiex_Skn3CustomPointer_all")
.path$&
.pointer%&
.refCount%&
-New%()="_skn3_maxguiex_Skn3CustomPointer_New"
}="skn3_maxguiex_Skn3CustomPointer"
RequestScrollbarSize%()="skn3_maxguiex_RequestScrollbarSize"
SetComboBoxHeight%(comboBox:maxgui.maxgui.TGadget,Height%)="skn3_maxguiex_SetComboBoxHeight"
GadgetScreenPosition%&[](gadget:maxgui.maxgui.TGadget,client%=0)="skn3_maxguiex_GadgetScreenPosition"
PointOverGadget%(pointX%,pointY%,targetGadget:maxgui.maxgui.TGadget,sourceGadget:maxgui.maxgui.TGadget="bbNullObject")="skn3_maxguiex_PointOverGadget"
DisableGadgetRedraw%(gadget:maxgui.maxgui.TGadget)="skn3_maxguiex_DisableGadgetRedraw"
EnableGadgetRedraw%(gadget:maxgui.maxgui.TGadget)="skn3_maxguiex_EnableGadgetRedraw"
MessageBox%(title$,message$,parent:maxgui.maxgui.TGadget="bbNullObject")="skn3_maxguiex_MessageBox"
GadgetSizeForString%&[](gadget:maxgui.maxgui.TGadget,text$,maxWidth%=0)="skn3_maxguiex_GadgetSizeForString"
GetCreationGroup:maxgui.maxgui.TGadget(Gadget:maxgui.maxgui.TGadget)="skn3_maxguiex_GetCreationGroup"
SetGadgetReadOnly%(gadget:maxgui.maxgui.TGadget,yes%)="skn3_maxguiex_SetGadgetReadOnly"
SetGadgetMaxLength%(gadget:maxgui.maxgui.TGadget,length%=0)="skn3_maxguiex_SetGadgetMaxLength"
GetGadgetMaxLength%(gadget:maxgui.maxgui.TGadget)="skn3_maxguiex_GetGadgetMaxLength"
LoadCustomPointer:Skn3CustomPointer(path$)="skn3_maxguiex_LoadCustomPointer"
SetCustomPointer%(pointer:Skn3CustomPointer)="skn3_maxguiex_SetCustomPointer"
FreeCustomPointer%(pointer:Skn3CustomPointer)="skn3_maxguiex_FreeCustomPointer"
ExtractCursorHotspot%&[](path$,index%=0)="skn3_maxguiex_ExtractCursorHotspot"
ListBatchLock%(Gadget:maxgui.maxgui.TGadget)="skn3_maxguiex_ListBatchLock"
ListBatchAdd%(Gadget:maxgui.maxgui.TGadget,text$,flags%,icon%,tip$,extra:Object="bbNullObject")="skn3_maxguiex_ListBatchAdd"
ListBatchUnlock%(Gadget:maxgui.maxgui.TGadget)="skn3_maxguiex_ListBatchUnlock"
GadgetWindow:maxgui.maxgui.TGadget(Gadget:maxgui.maxgui.TGadget)="skn3_maxguiex_GadgetWindow"
SetWindowAlwaysOnTop%(Window:maxgui.maxgui.TGadget,State%=0)="skn3_maxguiex_SetWindowAlwaysOnTop"
BringWindowToTop%(Window:maxgui.maxgui.TGadget)="skn3_maxguiex_BringWindowToTop"
FocusWindow%(Window:maxgui.maxgui.TGadget)="skn3_maxguiex_FocusWindow"
GadgetToInt%(Gadget:maxgui.maxgui.TGadget)="skn3_maxguiex_GadgetToInt"
SetColorPickerCustomColors%(colors%&[])="skn3_maxguiex_SetColorPickerCustomColors"
ClearColorPickerCustomColors%()="skn3_maxguiex_ClearColorPickerCustomColors"
RedrawGadgetFrame%(Gadget:maxgui.maxgui.TGadget)="skn3_maxguiex_RedrawGadgetFrame"
HideGadgetBorder%(Gadget:maxgui.maxgui.TGadget)="skn3_maxguiex_HideGadgetBorder"
InstallGuiFont%(path$)="skn3_maxguiex_InstallGuiFont"
SetTextareaLineSpacing%(Gadget:maxgui.maxgui.TGadget,lineSpacing#)="skn3_maxguiex_SetTextareaLineSpacing"
ScrollTextAreaToTop%(Gadget:maxgui.maxgui.TGadget)="skn3_maxguiex_ScrollTextAreaToTop"
ScrollTextAreaToBottom%(Gadget:maxgui.maxgui.TGadget)="skn3_maxguiex_ScrollTextAreaToBottom"
ScrollTextAreaToCursor%(Gadget:maxgui.maxgui.TGadget)="skn3_maxguiex_ScrollTextAreaToCursor"
GetAppResourcesPath$()="skn3_maxguiex_GetAppResourcesPath"
AssignGadgetClassId%()="skn3_maxguiex_AssignGadgetClassId"
Skn3PanelEx^maxgui.win32maxguiex.TWindowsPanel{
.gradientOn%&
.gradientVertical%&
.gradientStartR%&
.gradientStartG%&
.gradientStartB%&
.gradientEndR%&
.gradientEndG%&
.gradientEndB%&
-New%()="_skn3_maxguiex_Skn3PanelEx_New"
-WndProc%(hwnd%,MSG%,wp%,lp%)="_skn3_maxguiex_Skn3PanelEx_WndProc"
-SetGradient%(on%,r1%=0,b1%=0,g1%=0,r2%=0,b2%=0,g2%=0,vertical%=1)="_skn3_maxguiex_Skn3PanelEx_SetGradient"
}="skn3_maxguiex_Skn3PanelEx"
CreatePanelEx:maxgui.maxgui.TGadget(x%,y%,Width%,Height%,group:maxgui.maxgui.TGadget,Style%=0,text$=$"")="skn3_maxguiex_CreatePanelEx"
SetPanelExGradient%(Gadget:maxgui.maxgui.TGadget,on%,r1%=0,b1%=0,g1%=0,r2%=0,b2%=0,g2%=0,vertical%=1)="skn3_maxguiex_SetPanelExGradient"
